HTTP/1.1 200 OK
Content-Type: application/json


[
    {
        "id": 1,
        "itemId": 3,
        "content": "tototata"
    },
    {
        "id": 2,
        "itemId": 3,
        "content": "tototata"
    }
]
