{
	"info": {
		"_postman_id": "ca8ec0ef-a947-4a0e-92df-50b4a886a375",
		"name": "user-ms",
		"schema": "https://schema.getpostman.com/json/collection/v2.1.0/collection.json"
	},
	"item": [
		{
			"name": "GET /users/mail/a.a@gmail.com",
			"request": {
				"method": "GET",
				"header": [
					{
						"key": "Content-Type",
						"name": "Content-Type",
						"value": "application/json",
						"type": "text"
					}
				],
				"body": {
					"mode": "raw",
					"raw": ""
				},
				"url": {
					"raw": "{{host}}:{{port}}/{{context-path}}/users/mail/a.a@gmail.com",
					"host": [
						"{{host}}"
					],
					"port": "{{port}}",
					"path": [
						"{{context-path}}",
						"users",
						"mail",
						"a.a@gmail.com"
					]
				}
			},
			"response": []
		}
	]
}